iVerilog/elevator_control_system.vcd
$date
	Sun Sep 14 18:07:29 2025
$end
$version
	Icarus Verilog
$end
$timescale
	1ns
$end
$scope module elevator_top_tb $end
$var wire 1 ! weight_overload_lamp $end
$var wire 1 " safety_interlock $end
$var wire 11 # panel_button_lights [10:0] $end
$var wire 4 $ floor_indicator_lamps [3:0] $end
$var wire 1 % elevator_upward_indicator_lamp $end
$var wire 1 & elevator_downward_indicator_lamp $end
$var wire 11 ' elevator_control_output [10:0] $end
$var wire 1 ( door_open $end
$var wire 11 ) call_button_lights [10:0] $end
$var wire 1 * alarm $end
$var reg 1 + raw_door_close_btn $end
$var reg 1 , raw_door_open_btn $end
$var reg 1 - raw_emergency_btn $end
$var reg 11 . raw_floor_call_buttons [10:0] $end
$var reg 11 / raw_panel_buttons [10:0] $end
$var reg 1 0 raw_power_switch $end
$var reg 1 1 reset_n $end
$var reg 1 2 weight_sensor $end
$scope module dut $end
$var wire 1 3 power_switch $end
$var wire 1 + raw_door_close_btn $end
$var wire 1 , raw_door_open_btn $end
$var wire 1 - raw_emergency_btn $end
$var wire 11 4 raw_floor_call_buttons [10:0] $end
$var wire 11 5 raw_panel_buttons [10:0] $end
$var wire 1 0 raw_power_switch $end
$var wire 1 1 reset_n $end
$var wire 1 ! weight_overload_lamp $end
$var wire 1 2 weight_sensor $end
$var wire 1 " safety_interlock $end
$var wire 11 6 panel_buttons [10:0] $end
$var wire 11 7 panel_button_lights [10:0] $end
$var wire 4 8 floor_indicator_lamps [3:0] $end
$var wire 11 9 floor_call_buttons [10:0] $end
$var wire 1 : emergency_btn $end
$var wire 1 % elevator_upward_indicator_lamp $end
$var wire 6 ; elevator_state [5:0] $end
$var wire 1 < elevator_movement $end
$var wire 4 = elevator_floor_selector [3:0] $end
$var wire 1 & elevator_downward_indicator_lamp $end
$var wire 1 > elevator_direction $end
$var wire 11 ? elevator_control_output [10:0] $end
$var wire 1 @ door_open_logic_check $end
$var wire 1 A door_open_btn $end
$var wire 1 ( door_open $end
$var wire 1 B door_close_logic_check $end
$var wire 1 C door_close_btn $end
$var wire 1 D door_close $end
$var wire 1 E direction_selector $end
$var wire 1 F clock $end
$var wire 11 G call_button_lights [10:0] $end
$var wire 1 * alarm $end
$var wire 1 H activate_elevator $end
$scope module clk_inst $end
$var wire 1 I enable $end
$var parameter 32 J FREQ $end
$var reg 1 F clock_output $end
$upscope $end
$scope module door_close_debouncer $end
$var wire 1 K btn_n_in $end
$var wire 1 F clk $end
$var wire 1 1 rst_n $end
$var parameter 32 L PULSE_CYCLES $end
$var parameter 3 M STATE_IDLE $end
$var parameter 3 N STATE_PRESSED $end
$var parameter 3 O STATE_RELEASE $end
$var reg 3 P current_state [2:0] $end
$var reg 3 Q next_state [2:0] $end
$var reg 8 R pulse_counter [7:0] $end
$var reg 1 C pulse_out $end
$var reg 1 S pulse_trigger $end
$upscope $end
$scope module door_open_debouncer $end
$var wire 1 T btn_n_in $end
$var wire 1 F clk $end
$var wire 1 1 rst_n $end
$var parameter 32 U PULSE_CYCLES $end
$var parameter 3 V STATE_IDLE $end
$var parameter 3 W STATE_PRESSED $end
$var parameter 3 X STATE_RELEASE $end
$var reg 3 Y current_state [2:0] $end
$var reg 3 Z next_state [2:0] $end
$var reg 8 [ pulse_counter [7:0] $end
$var reg 1 A pulse_out $end
$var reg 1 \ pulse_trigger $end
$upscope $end
$scope module elevator_fsm_inst $end
$var wire 1 F clock_slower $end
$var wire 1 1 init $end
$var wire 1 3 power_switch $end
$var wire 1 2 weight_sensor $end
$var wire 1 : emergency_stop $end
$var wire 4 ] elevator_floor_selector [3:0] $end
$var wire 1 E direction_selector $end
$var wire 1 H activate_elevator $end
$var parameter 6 ^ DOWN_F10_F9 $end
$var parameter 6 _ DOWN_F11_F10 $end
$var parameter 6 ` DOWN_F2_F1 $end
$var parameter 6 a DOWN_F3_F2 $end
$var parameter 6 b DOWN_F4_F3 $end
$var parameter 6 c DOWN_F5_F4 $end
$var parameter 6 d DOWN_F6_F5 $end
$var parameter 6 e DOWN_F7_F6 $end
$var parameter 6 f DOWN_F8_F7 $end
$var parameter 6 g DOWN_F9_F8 $end
$var parameter 6 h EMERGENCY $end
$var parameter 4 i FLOOR_1 $end
$var parameter 4 j FLOOR_10 $end
$var parameter 4 k FLOOR_11 $end
$var parameter 4 l FLOOR_2 $end
$var parameter 4 m FLOOR_3 $end
$var parameter 4 n FLOOR_4 $end
$var parameter 4 o FLOOR_5 $end
$var parameter 4 p FLOOR_6 $end
$var parameter 4 q FLOOR_7 $end
$var parameter 4 r FLOOR_8 $end
$var parameter 4 s FLOOR_9 $end
$var parameter 6 t STOP_FL1 $end
$var parameter 6 u STOP_FL10 $end
$var parameter 6 v STOP_FL11 $end
$var parameter 6 w STOP_FL2 $end
$var parameter 6 x STOP_FL3 $end
$var parameter 6 y STOP_FL4 $end
$var parameter 6 z STOP_FL5 $end
$var parameter 6 { STOP_FL6 $end
$var parameter 6 | STOP_FL7 $end
$var parameter 6 } STOP_FL8 $end
$var parameter 6 ~ STOP_FL9 $end
$var parameter 6 !" UP_F10_F11 $end
$var parameter 6 "" UP_F1_F2 $end
$var parameter 6 #" UP_F2_F3 $end
$var parameter 6 $" UP_F3_F4 $end
$var parameter 6 %" UP_F4_F5 $end
$var parameter 6 &" UP_F5_F6 $end
$var parameter 6 '" UP_F6_F7 $end
$var parameter 6 (" UP_F7_F8 $end
$var parameter 6 )" UP_F8_F9 $end
$var parameter 6 *" UP_F9_F10 $end
$var reg 11 +" control_output [10:0] $end
$var reg 6 ," counter_state [5:0] $end
$var reg 6 -" next_counter_state [5:0] $end
$upscope $end
$scope module emergency_debouncer $end
$var wire 1 ." btn_n_in $end
$var wire 1 F clk $end
$var wire 1 1 rst_n $end
$var parameter 32 /" PULSE_CYCLES $end
$var parameter 3 0" STATE_IDLE $end
$var parameter 3 1" STATE_PRESSED $end
$var parameter 3 2" STATE_RELEASE $end
$var reg 3 3" current_state [2:0] $end
$var reg 3 4" next_state [2:0] $end
$var reg 8 5" pulse_counter [7:0] $end
$var reg 1 : pulse_out $end
$var reg 1 6" pulse_trigger $end
$upscope $end
$scope module floor_call_debouncer0 $end
$var wire 1 7" btn_n_in $end
$var wire 1 F clk $end
$var wire 1 1 rst_n $end
$var parameter 32 8" PULSE_CYCLES $end
$var parameter 3 9" STATE_IDLE $end
$var parameter 3 :" STATE_PRESSED $end
$var parameter 3 ;" STATE_RELEASE $end
$var reg 3 <" current_state [2:0] $end
$var reg 3 =" next_state [2:0] $end
$var reg 8 >" pulse_counter [7:0] $end
$var reg 1 ?" pulse_out $end
$var reg 1 @" pulse_trigger $end
$upscope $end
$scope module floor_call_debouncer1 $end
$var wire 1 A" btn_n_in $end
$var wire 1 F clk $end
$var wire 1 1 rst_n $end
$var parameter 32 B" PULSE_CYCLES $end
$var parameter 3 C" STATE_IDLE $end
$var parameter 3 D" STATE_PRESSED $end
$var parameter 3 E" STATE_RELEASE $end
$var reg 3 F" current_state [2:0] $end
$var reg 3 G" next_state [2:0] $end
$var reg 8 H" pulse_counter [7:0] $end
$var reg 1 I" pulse_out $end
$var reg 1 J" pulse_trigger $end
$upscope $end
$scope module floor_call_debouncer10 $end
$var wire 1 K" btn_n_in $end
$var wire 1 F clk $end
$var wire 1 1 rst_n $end
$var parameter 32 L" PULSE_CYCLES $end
$var parameter 3 M" STATE_IDLE $end
$var parameter 3 N" STATE_PRESSED $end
$var parameter 3 O" STATE_RELEASE $end
$var reg 3 P" current_state [2:0] $end
$var reg 3 Q" next_state [2:0] $end
$var reg 8 R" pulse_counter [7:0] $end
$var reg 1 S" pulse_out $end
$var reg 1 T" pulse_trigger $end
$upscope $end
$scope module floor_call_debouncer2 $end
$var wire 1 U" btn_n_in $end
$var wire 1 F clk $end
$var wire 1 1 rst_n $end
$var parameter 32 V" PULSE_CYCLES $end
$var parameter 3 W" STATE_IDLE $end
$var parameter 3 X" STATE_PRESSED $end
$var parameter 3 Y" STATE_RELEASE $end
$var reg 3 Z" current_state [2:0] $end
$var reg 3 [" next_state [2:0] $end
$var reg 8 \" pulse_counter [7:0] $end
$var reg 1 ]" pulse_out $end
$var reg 1 ^" pulse_trigger $end
$upscope $end
$scope module floor_call_debouncer3 $end
$var wire 1 _" btn_n_in $end
$var wire 1 F clk $end
$var wire 1 1 rst_n $end
$var parameter 32 `" PULSE_CYCLES $end
$var parameter 3 a" STATE_IDLE $end
$var parameter 3 b" STATE_PRESSED $end
$var parameter 3 c" STATE_RELEASE $end
$var reg 3 d" current_state [2:0] $end
$var reg 3 e" next_state [2:0] $end
$var reg 8 f" pulse_counter [7:0] $end
$var reg 1 g" pulse_out $end
$var reg 1 h" pulse_trigger $end
$upscope $end
$scope module floor_call_debouncer4 $end
$var wire 1 i" btn_n_in $end
$var wire 1 F clk $end
$var wire 1 1 rst_n $end
$var parameter 32 j" PULSE_CYCLES $end
$var parameter 3 k" STATE_IDLE $end
$var parameter 3 l" STATE_PRESSED $end
$var parameter 3 m" STATE_RELEASE $end
$var reg 3 n" current_state [2:0] $end
$var reg 3 o" next_state [2:0] $end
$var reg 8 p" pulse_counter [7:0] $end
$var reg 1 q" pulse_out $end
$var reg 1 r" pulse_trigger $end
$upscope $end
$scope module floor_call_debouncer5 $end
$var wire 1 s" btn_n_in $end
$var wire 1 F clk $end
$var wire 1 1 rst_n $end
$var parameter 32 t" PULSE_CYCLES $end
$var parameter 3 u" STATE_IDLE $end
$var parameter 3 v" STATE_PRESSED $end
$var parameter 3 w" STATE_RELEASE $end
$var reg 3 x" current_state [2:0] $end
$var reg 3 y" next_state [2:0] $end
$var reg 8 z" pulse_counter [7:0] $end
$var reg 1 {" pulse_out $end
$var reg 1 |" pulse_trigger $end
$upscope $end
$scope module floor_call_debouncer6 $end
$var wire 1 }" btn_n_in $end
$var wire 1 F clk $end
$var wire 1 1 rst_n $end
$var parameter 32 ~" PULSE_CYCLES $end
$var parameter 3 !# STATE_IDLE $end
$var parameter 3 "# STATE_PRESSED $end
$var parameter 3 ## STATE_RELEASE $end
$var reg 3 $# current_state [2:0] $end
$var reg 3 %# next_state [2:0] $end
$var reg 8 &# pulse_counter [7:0] $end
$var reg 1 '# pulse_out $end
$var reg 1 (# pulse_trigger $end
$upscope $end
$scope module floor_call_debouncer7 $end
$var wire 1 )# btn_n_in $end
$var wire 1 F clk $end
$var wire 1 1 rst_n $end
$var parameter 32 *# PULSE_CYCLES $end
$var parameter 3 +# STATE_IDLE $end
$var parameter 3 ,# STATE_PRESSED $end
$var parameter 3 -# STATE_RELEASE $end
$var reg 3 .# current_state [2:0] $end
$var reg 3 /# next_state [2:0] $end
$var reg 8 0# pulse_counter [7:0] $end
$var reg 1 1# pulse_out $end
$var reg 1 2# pulse_trigger $end
$upscope $end
$scope module floor_call_debouncer8 $end
$var wire 1 3# btn_n_in $end
$var wire 1 F clk $end
$var wire 1 1 rst_n $end
$var parameter 32 4# PULSE_CYCLES $end
$var parameter 3 5# STATE_IDLE $end
$var parameter 3 6# STATE_PRESSED $end
$var parameter 3 7# STATE_RELEASE $end
$var reg 3 8# current_state [2:0] $end
$var reg 3 9# next_state [2:0] $end
$var reg 8 :# pulse_counter [7:0] $end
$var reg 1 ;# pulse_out $end
$var reg 1 <# pulse_trigger $end
$upscope $end
$scope module floor_call_debouncer9 $end
$var wire 1 =# btn_n_in $end
$var wire 1 F clk $end
$var wire 1 1 rst_n $end
$var parameter 32 ># PULSE_CYCLES $end
$var parameter 3 ?# STATE_IDLE $end
$var parameter 3 @# STATE_PRESSED $end
$var parameter 3 A# STATE_RELEASE $end
$var reg 3 B# current_state [2:0] $end
$var reg 3 C# next_state [2:0] $end
$var reg 8 D# pulse_counter [7:0] $end
$var reg 1 E# pulse_out $end
$var reg 1 F# pulse_trigger $end
$upscope $end
$scope module floor_logic_inst $end
$var wire 1 F clock $end
$var wire 4 G# current_floor_state [3:0] $end
$var wire 1 C door_close_btn $end
$var wire 1 A door_open_btn $end
$var wire 1 > elevator_direction $end
$var wire 1 < elevator_moving $end
$var wire 6 H# elevator_state [5:0] $end
$var wire 1 : emergency_btn $end
$var wire 11 I# floor_call_buttons [10:0] $end
$var wire 11 J# panel_buttons [10:0] $end
$var wire 1 3 power_switch $end
$var wire 1 1 reset_n $end
$var parameter 6 K# DOWN_F10_F9 $end
$var parameter 6 L# DOWN_F11_F10 $end
$var parameter 6 M# DOWN_F2_F1 $end
$var parameter 6 N# DOWN_F3_F2 $end
$var parameter 6 O# DOWN_F4_F3 $end
$var parameter 6 P# DOWN_F5_F4 $end
$var parameter 6 Q# DOWN_F6_F5 $end
$var parameter 6 R# DOWN_F7_F6 $end
$var parameter 6 S# DOWN_F8_F7 $end
$var parameter 6 T# DOWN_F9_F8 $end
$var parameter 6 U# EMERGENCY $end
$var parameter 4 V# FLOOR_1 $end
$var parameter 4 W# FLOOR_10 $end
$var parameter 4 X# FLOOR_11 $end
$var parameter 4 Y# FLOOR_2 $end
$var parameter 4 Z# FLOOR_3 $end
$var parameter 4 [# FLOOR_4 $end
$var parameter 4 \# FLOOR_5 $end
$var parameter 4 ]# FLOOR_6 $end
$var parameter 4 ^# FLOOR_7 $end
$var parameter 4 _# FLOOR_8 $end
$var parameter 4 `# FLOOR_9 $end
$var parameter 6 a# STOP_FL1 $end
$var parameter 6 b# STOP_FL10 $end
$var parameter 6 c# STOP_FL11 $end
$var parameter 6 d# STOP_FL2 $end
$var parameter 6 e# STOP_FL3 $end
$var parameter 6 f# STOP_FL4 $end
$var parameter 6 g# STOP_FL5 $end
$var parameter 6 h# STOP_FL6 $end
$var parameter 6 i# STOP_FL7 $end
$var parameter 6 j# STOP_FL8 $end
$var parameter 6 k# STOP_FL9 $end
$var parameter 6 l# UP_F10_F11 $end
$var parameter 6 m# UP_F1_F2 $end
$var parameter 6 n# UP_F2_F3 $end
$var parameter 6 o# UP_F3_F4 $end
$var parameter 6 p# UP_F4_F5 $end
$var parameter 6 q# UP_F5_F6 $end
$var parameter 6 r# UP_F6_F7 $end
$var parameter 6 s# UP_F7_F8 $end
$var parameter 6 t# UP_F8_F9 $end
$var parameter 6 u# UP_F9_F10 $end
$var reg 1 H activate_elevator $end
$var reg 11 v# call_button_lights [10:0] $end
$var reg 1 E direction_selector $end
$var reg 1 B door_close_allowed $end
$var reg 1 @ door_open_allowed $end
$var reg 11 w# down_requests [10:0] $end
$var reg 4 x# elevator_floor_selector [3:0] $end
$var reg 11 y# panel_button_lights [10:0] $end
$var reg 11 z# panel_requests [10:0] $end
$var reg 11 {# up_requests [10:0] $end
$var integer 32 |# i [31:0] $end
$scope function is_stop_state $end
$var reg 6 }# state [5:0] $end
$upscope $end
$scope begin elevator_call_moving_down $end
$upscope $end
$scope begin elevator_call_moving_up $end
$upscope $end
$scope begin elevator_remaining_direction_down_moving_down $end
$upscope $end
$scope begin elevator_remaining_direction_down_moving_up $end
$upscope $end
$scope begin elevator_remaining_direction_up_moving_down $end
$upscope $end
$scope begin elevator_remaining_direction_up_moving_up $end
$upscope $end
$scope begin panel_request_down_direction_moving_down $end
$upscope $end
$scope begin panel_request_down_direction_moving_up $end
$upscope $end
$scope begin panel_request_up_direction_moving_down $end
$upscope $end
$scope begin panel_request_up_direction_moving_up $end
$upscope $end
$upscope $end
$scope module panel_debouncer0 $end
$var wire 1 ~# btn_n_in $end
$var wire 1 F clk $end
$var wire 1 1 rst_n $end
$var parameter 32 !$ PULSE_CYCLES $end
$var parameter 3 "$ STATE_IDLE $end
$var parameter 3 #$ STATE_PRESSED $end
$var parameter 3 $$ STATE_RELEASE $end
$var reg 3 %$ current_state [2:0] $end
$var reg 3 &$ next_state [2:0] $end
$var reg 8 '$ pulse_counter [7:0] $end
$var reg 1 ($ pulse_out $end
$var reg 1 )$ pulse_trigger $end
$upscope $end
$scope module panel_debouncer1 $end
$var wire 1 *$ btn_n_in $end
$var wire 1 F clk $end
$var wire 1 1 rst_n $end
$var parameter 32 +$ PULSE_CYCLES $end
$var parameter 3 ,$ STATE_IDLE $end
$var parameter 3 -$ STATE_PRESSED $end
$var parameter 3 .$ STATE_RELEASE $end
$var reg 3 /$ current_state [2:0] $end
$var reg 3 0$ next_state [2:0] $end
$var reg 8 1$ pulse_counter [7:0] $end
$var reg 1 2$ pulse_out $end
$var reg 1 3$ pulse_trigger $end
$upscope $end
$scope module panel_debouncer10 $end
$var wire 1 4$ btn_n_in $end
$var wire 1 F clk $end
$var wire 1 1 rst_n $end
$var parameter 32 5$ PULSE_CYCLES $end
$var parameter 3 6$ STATE_IDLE $end
$var parameter 3 7$ STATE_PRESSED $end
$var parameter 3 8$ STATE_RELEASE $end
$var reg 3 9$ current_state [2:0] $end
$var reg 3 :$ next_state [2:0] $end
$var reg 8 ;$ pulse_counter [7:0] $end
$var reg 1 <$ pulse_out $end
$var reg 1 =$ pulse_trigger $end
$upscope $end
$scope module panel_debouncer2 $end
$var wire 1 >$ btn_n_in $end
$var wire 1 F clk $end
$var wire 1 1 rst_n $end
$var parameter 32 ?$ PULSE_CYCLES $end
$var parameter 3 @$ STATE_IDLE $end
$var parameter 3 A$ STATE_PRESSED $end
$var parameter 3 B$ STATE_RELEASE $end
$var reg 3 C$ current_state [2:0] $end
$var reg 3 D$ next_state [2:0] $end
$var reg 8 E$ pulse_counter [7:0] $end
$var reg 1 F$ pulse_out $end
$var reg 1 G$ pulse_trigger $end
$upscope $end
$scope module panel_debouncer3 $end
$var wire 1 H$ btn_n_in $end
$var wire 1 F clk $end
$var wire 1 1 rst_n $end
$var parameter 32 I$ PULSE_CYCLES $end
$var parameter 3 J$ STATE_IDLE $end
$var parameter 3 K$ STATE_PRESSED $end
$var parameter 3 L$ STATE_RELEASE $end
$var reg 3 M$ current_state [2:0] $end
$var reg 3 N$ next_state [2:0] $end
$var reg 8 O$ pulse_counter [7:0] $end
$var reg 1 P$ pulse_out $end
$var reg 1 Q$ pulse_trigger $end
$upscope $end
$scope module panel_debouncer4 $end
$var wire 1 R$ btn_n_in $end
$var wire 1 F clk $end
$var wire 1 1 rst_n $end
$var parameter 32 S$ PULSE_CYCLES $end
$var parameter 3 T$ STATE_IDLE $end
$var parameter 3 U$ STATE_PRESSED $end
$var parameter 3 V$ STATE_RELEASE $end
$var reg 3 W$ current_state [2:0] $end
$var reg 3 X$ next_state [2:0] $end
$var reg 8 Y$ pulse_counter [7:0] $end
$var reg 1 Z$ pulse_out $end
$var reg 1 [$ pulse_trigger $end
$upscope $end
$scope module panel_debouncer5 $end
$var wire 1 \$ btn_n_in $end
$var wire 1 F clk $end
$var wire 1 1 rst_n $end
$var parameter 32 ]$ PULSE_CYCLES $end
$var parameter 3 ^$ STATE_IDLE $end
$var parameter 3 _$ STATE_PRESSED $end
$var parameter 3 `$ STATE_RELEASE $end
$var reg 3 a$ current_state [2:0] $end
$var reg 3 b$ next_state [2:0] $end
$var reg 8 c$ pulse_counter [7:0] $end
$var reg 1 d$ pulse_out $end
$var reg 1 e$ pulse_trigger $end
$upscope $end
$scope module panel_debouncer6 $end
$var wire 1 f$ btn_n_in $end
$var wire 1 F clk $end
$var wire 1 1 rst_n $end
$var parameter 32 g$ PULSE_CYCLES $end
$var parameter 3 h$ STATE_IDLE $end
$var parameter 3 i$ STATE_PRESSED $end
$var parameter 3 j$ STATE_RELEASE $end
$var reg 3 k$ current_state [2:0] $end
$var reg 3 l$ next_state [2:0] $end
$var reg 8 m$ pulse_counter [7:0] $end
$var reg 1 n$ pulse_out $end
$var reg 1 o$ pulse_trigger $end
$upscope $end
$scope module panel_debouncer7 $end
$var wire 1 p$ btn_n_in $end
$var wire 1 F clk $end
$var wire 1 1 rst_n $end
$var parameter 32 q$ PULSE_CYCLES $end
$var parameter 3 r$ STATE_IDLE $end
$var parameter 3 s$ STATE_PRESSED $end
$var parameter 3 t$ STATE_RELEASE $end
$var reg 3 u$ current_state [2:0] $end
$var reg 3 v$ next_state [2:0] $end
$var reg 8 w$ pulse_counter [7:0] $end
$var reg 1 x$ pulse_out $end
$var reg 1 y$ pulse_trigger $end
$upscope $end
$scope module panel_debouncer8 $end
$var wire 1 z$ btn_n_in $end
$var wire 1 F clk $end
$var wire 1 1 rst_n $end
$var parameter 32 {$ PULSE_CYCLES $end
$var parameter 3 |$ STATE_IDLE $end
$var parameter 3 }$ STATE_PRESSED $end
$var parameter 3 ~$ STATE_RELEASE $end
$var reg 3 !% current_state [2:0] $end
$var reg 3 "% next_state [2:0] $end
$var reg 8 #% pulse_counter [7:0] $end
$var reg 1 $% pulse_out $end
$var reg 1 %% pulse_trigger $end
$upscope $end
$scope module panel_debouncer9 $end
$var wire 1 &% btn_n_in $end
$var wire 1 F clk $end
$var wire 1 1 rst_n $end
$var parameter 32 '% PULSE_CYCLES $end
$var parameter 3 (% STATE_IDLE $end
$var parameter 3 )% STATE_PRESSED $end
$var parameter 3 *% STATE_RELEASE $end
$var reg 3 +% current_state [2:0] $end
$var reg 3 ,% next_state [2:0] $end
$var reg 8 -% pulse_counter [7:0] $end
$var reg 1 .% pulse_out $end
$var reg 1 /% pulse_trigger $end
$upscope $end
$upscope $end
$upscope $end
$enddefinitions $end
$comment Show the parameter values. $end
$dumpall
b100 *%
b10 )%
b1 (%
b1 '%
b100 ~$
b10 }$
b1 |$
b1 {$
b100 t$
b10 s$
b1 r$
b1 q$
b100 j$
b10 i$
b1 h$
b1 g$
b100 `$
b10 _$
b1 ^$
b1 ]$
b100 V$
b10 U$
b1 T$
b1 S$
b100 L$
b10 K$
b1 J$
b1 I$
b100 B$
b10 A$
b1 @$
b1 ?$
b100 8$
b10 7$
b1 6$
b1 5$
b100 .$
b10 -$
b1 ,$
b1 +$
b100 $$
b10 #$
b1 "$
b1 !$
b10011 u#
b10010 t#
b10001 s#
b10000 r#
b1111 q#
b1110 p#
b1101 o#
b1100 n#
b1011 m#
b10100 l#
b1000 k#
b111 j#
b110 i#
b101 h#
b100 g#
b11 f#
b10 e#
b1 d#
b1010 c#
b1001 b#
b0 a#
b1000 `#
b111 _#
b110 ^#
b101 ]#
b100 \#
b11 [#
b10 Z#
b1 Y#
b1010 X#
b1001 W#
b0 V#
b11111 U#
b10111 T#
b11000 S#
b11001 R#
b11010 Q#
b11011 P#
b11100 O#
b11101 N#
b11110 M#
b10101 L#
b10110 K#
b100 A#
b10 @#
b1 ?#
b1 >#
b100 7#
b10 6#
b1 5#
b1 4#
b100 -#
b10 ,#
b1 +#
b1 *#
b100 ##
b10 "#
b1 !#
b1 ~"
b100 w"
b10 v"
b1 u"
b1 t"
b100 m"
b10 l"
b1 k"
b1 j"
b100 c"
b10 b"
b1 a"
b1 `"
b100 Y"
b10 X"
b1 W"
b1 V"
b100 O"
b10 N"
b1 M"
b1 L"
b100 E"
b10 D"
b1 C"
b1 B"
b100 ;"
b10 :"
b1 9"
b1 8"
b100 2"
b10 1"
b1 0"
b1 /"
b10011 *"
b10010 )"
b10001 ("
b10000 '"
b1111 &"
b1110 %"
b1101 $"
b1100 #"
b1011 ""
b10100 !"
b1000 ~
b111 }
b110 |
b101 {
b100 z
b11 y
b10 x
b1 w
b1010 v
b1001 u
b0 t
b1000 s
b111 r
b110 q
b101 p
b100 o
b11 n
b10 m
b1 l
b1010 k
b1001 j
b0 i
b11111 h
b10111 g
b11000 f
b11001 e
b11010 d
b11011 c
b11100 b
b11101 a
b11110 `
b10101 _
b10110 ^
b100 X
b10 W
b1 V
b1 U
b100 O
b10 N
b1 M
b1 L
b101000 J
$end
#0
$dumpvars
0/%
0.%
b0 -%
b1 ,%
b1 +%
1&%
0%%
0$%
b0 #%
b1 "%
b1 !%
1z$
0y$
0x$
b0 w$
b1 v$
b1 u$
1p$
0o$
0n$
b0 m$
b1 l$
b1 k$
1f$
0e$
0d$
b0 c$
b1 b$
b1 a$
1\$
0[$
0Z$
b0 Y$
b1 X$
b1 W$
1R$
0Q$
0P$
b0 O$
b1 N$
b1 M$
1H$
0G$
0F$
b0 E$
b1 D$
b1 C$
1>$
0=$
0<$
b0 ;$
b1 :$
b1 9$
14$
03$
02$
b0 1$
b1 0$
b1 /$
1*$
0)$
0($
b0 '$
b1 &$
b1 %$
1~#
b0 }#
bx |#
b0 {#
b0 z#
b0 y#
bx x#
b0 w#
b0 v#
b0 J#
b0 I#
b0 H#
b0 G#
0F#
0E#
b0 D#
b1 C#
b1 B#
1=#
0<#
0;#
b0 :#
b1 9#
b1 8#
13#
02#
01#
b0 0#
b1 /#
b1 .#
1)#
0(#
0'#
b0 &#
b1 %#
b1 $#
1}"
0|"
0{"
b0 z"
b1 y"
b1 x"
1s"
0r"
0q"
b0 p"
b1 o"
b1 n"
1i"
0h"
0g"
b0 f"
b1 e"
b1 d"
1_"
0^"
0]"
b0 \"
b1 ["
b1 Z"
1U"
0T"
0S"
b0 R"
b1 Q"
b1 P"
1K"
0J"
0I"
b0 H"
b1 G"
b1 F"
1A"
0@"
0?"
b0 >"
b1 ="
b1 <"
17"
06"
b0 5"
b1 4"
b1 3"
1."
b0 -"
b0 ,"
b10001 +"
bx ]
0\
b0 [
b1 Z
b1 Y
1T
0S
b0 R
b1 Q
b1 P
1K
1I
0H
b0 G
0F
xE
0D
0C
0B
0A
0@
b10001 ?
0>
bx =
0<
b0 ;
0:
b0 9
b0 8
b0 7
b0 6
b0 5
b0 4
13
02
01
10
b0 /
b0 .
0-
0,
0+
0*
b0 )
1(
b10001 '
0&
0%
b0 $
b0 #
1"
0!
$end
#20
1F
#40
0F
#50
11
#60
1F
#80
0F
#100
1F
#120
0F
#140
1F
#160
0F
#180
1F
#200
0F
#220
1F
#240
0F
#260
1F
#280
0F
#300
1F
#320
0F
#340
1F
#360
0F
#380
1F
#400
0F
#420
1F
#440
0F
#460
1F
#480
0F
#500
1F
#520
0F
#540
1F
#550
b10 ["
0U"
b100 .
b100 4
#560
0F
#580
b10 Z"
1F
#600
0F
#620
1F
#640
0F
#660
1F
#680
0F
#700
1F
#720
0F
#740
1F
#750
b100 ["
1U"
b0 .
b0 4
#760
0F
#780
b1 ["
1^"
b100 Z"
1F
#800
0F
#820
0^"
b1 \"
b100 9
b100 I#
1]"
b1 Z"
1F
#840
0F
#860
b1011 -"
1E
b10 =
b10 ]
b10 x#
b11111111111111111111111111111111 |#
1H
b0 \"
b100 )
b100 G
b100 v#
b100 {#
1F
#880
0F
#900
0(
1D
b1 $
b1 8
b1 G#
1%
1>
1<
0"
b10100110 '
b10100110 ?
b10100110 +"
b1100 -"
b1011 }#
0H
b1011 ;
b1011 ,"
b1011 H#
b0 9
b0 I#
0]"
1F
#920
0F
#940
b10 $
b10 8
b10 G#
b100100110 '
b100100110 ?
b100100110 +"
b10 -"
b1100 }#
b1100 ;
b1100 ,"
b1100 H#
1F
#960
0F
#980
1(
0D
0%
0>
0<
1"
b100010001 '
b100010001 ?
b100010001 +"
b10 }#
b10 ;
b10 ,"
b10 H#
b0 )
b0 G
b0 v#
b0 {#
1F
#1000
0F
#1020
1F
#1040
0F
#1060
1F
#1080
0F
#1100
1F
#1120
0F
#1140
1F
#1160
0F
#1180
1F
#1200
0F
#1220
1F
#1240
0F
#1250
b10 %#
0}"
b1000000 .
b1000000 4
#1260
b10 $#
1F
#1280
0F
#1300
1F
#1320
0F
#1340
1F
#1360
0F
#1380
1F
#1400
0F
#1420
1F
#1440
0F
#1450
b100 %#
1}"
b0 .
b0 4
#1460
b1 %#
1(#
b100 $#
1F
#1480
0F
#1500
0(#
b1 &#
b1000000 9
b1000000 I#
1'#
b1 $#
1F
#1520
0F
#1540
b1101 -"
b110 =
b110 ]
b110 x#
b11111111111111111111111111111111 |#
1H
b1000000 )
b1000000 G
b1000000 v#
b1000000 {#
b0 &#
1F
#1560
0F
#1580
0(
1D
b11 $
b11 8
b11 G#
1%
1>
1<
0"
b110100110 '
b110100110 ?
b110100110 +"
b1110 -"
b1101 }#
0H
b0 9
b0 I#
0'#
b1101 ;
b1101 ,"
b1101 H#
1F
#1600
0F
#1620
b100 $
b100 8
b100 G#
b1000100110 '
b1000100110 ?
b1000100110 +"
b1111 -"
b1110 }#
b1110 ;
b1110 ,"
b1110 H#
1F
#1640
0F
#1660
b101 $
b101 8
b101 G#
b1010100110 '
b1010100110 ?
b1010100110 +"
b10000 -"
b1111 }#
b1111 ;
b1111 ,"
b1111 H#
1F
#1680
0F
#1700
b110 $
b110 8
b110 G#
b1100100110 '
b1100100110 ?
b1100100110 +"
b110 -"
b10000 }#
b10000 ;
b10000 ,"
b10000 H#
1F
#1720
0F
#1740
1(
0D
0%
0>
0<
1"
b1100010001 '
b1100010001 ?
b1100010001 +"
b110 }#
b0 )
b0 G
b0 v#
b0 {#
b110 ;
b110 ,"
b110 H#
1F
#1760
0F
#1780
1F
#1800
0F
#1820
1F
#1840
0F
#1860
1F
#1880
0F
#1900
1F
#1920
0F
#1940
1F
#1950
b10 G"
0A"
b10 .
b10 4
#1960
0F
#1980
b10 F"
1F
#2000
0F
#2020
1F
#2040
0F
#2060
1F
#2080
0F
#2100
1F
#2120
0F
#2140
1F
#2150
b100 G"
1A"
b0 .
b0 4
#2160
0F
#2180
b1 G"
1J"
b100 F"
1F
#2200
0F
#2220
0J"
b1 H"
b10 9
b10 I#
1I"
b1 F"
1F
#2240
0F
#2260
b11001 -"
0E
b1 =
b1 ]
b1 x#
b11111111111111111111111111111111 |#
1H
b10 )
b10 G
b10 v#
b10 w#
b0 H"
1F
#2280
0F
#2300
0(
1D
b101 $
b101 8
b101 G#
1&
1<
0"
b1010101010 '
b1010101010 ?
b1010101010 +"
b11010 -"
b11001 }#
0H
b0 9
b0 I#
0I"
b11001 ;
b11001 ,"
b11001 H#
1F
#2320
0F
